<?xml version="1.0" encoding="UTF-8" standalone="no"?>
<!-- Created with Inkscape (http://www.inkscape.org/) -->

<svg
   xmlns:dc="http://purl.org/dc/elements/1.1/"
   xmlns:cc="http://creativecommons.org/ns#"
   xmlns:rdf="http://www.w3.org/1999/02/22-rdf-syntax-ns#"
   xmlns:svg="http://www.w3.org/2000/svg"
   xmlns="http://www.w3.org/2000/svg"
   xmlns:sodipodi="http://sodipodi.sourceforge.net/DTD/sodipodi-0.dtd"
   xmlns:inkscape="http://www.inkscape.org/namespaces/inkscape"
   width="10.739614mm"
   height="10.739614mm"
   viewBox="0 0 38.053749 38.053749"
   id="svg2"
   version="1.1"
   inkscape:version="0.91 r13725"
   sodipodi:docname="emblem.svg">
  <defs
     id="defs4" />
  <sodipodi:namedview
     id="base"
     pagecolor="#ffffff"
     bordercolor="#666666"
     borderopacity="1.0"
     inkscape:pageopacity="0.0"
     inkscape:pageshadow="2"
     inkscape:zoom="9.2537315"
     inkscape:cx="18.918805"
     inkscape:cy="19.026874"
     inkscape:document-units="px"
     inkscape:current-layer="g3425"
     showgrid="true"
     inkscape:object-nodes="false"
     inkscape:snap-grids="true"
     inkscape:window-width="1280"
     inkscape:window-height="736"
     inkscape:window-x="0"
     inkscape:window-y="27"
     inkscape:window-maximized="1"
     fit-margin-top="0"
     fit-margin-left="0"
     fit-margin-right="0"
     fit-margin-bottom="0">
    <inkscape:grid
       type="xygrid"
       id="grid3356"
       originx="-138.47313"
       originy="-435.52667" />
  </sodipodi:namedview>
  <metadata
     id="metadata7">
    <rdf:RDF>
      <cc:Work
         rdf:about="">
        <dc:format>image/svg+xml</dc:format>
        <dc:type
           rdf:resource="http://purl.org/dc/dcmitype/StillImage" />
        <dc:title></dc:title>
      </cc:Work>
    </rdf:RDF>
  </metadata>
  <g
     inkscape:label="Layer 1"
     inkscape:groupmode="layer"
     id="layer1"
     transform="translate(-138.47313,-578.78178)"
     style="display:none">
    <path
       style="opacity:1;fill:#008080;fill-opacity:1;stroke:none;stroke-width:1;stroke-linecap:butt;stroke-miterlimit:4;stroke-dasharray:none;stroke-opacity:1"
       id="path3404"
       sodipodi:type="arc"
       sodipodi:cx="157.5"
       sodipodi:cy="597.80865"
       sodipodi:rx="19.026875"
       sodipodi:ry="19.026875"
       sodipodi:start="6.2450848"
       sodipodi:end="6.2368119"
       sodipodi:open="true"
       d="m 176.51307,597.0839 a 19.026875,19.026875 0 0 1 -18.24899,19.73628 19.026875,19.026875 0 0 1 -19.77399,-18.20813 19.026875,19.026875 0 0 1 18.1672,-19.8116 19.026875,19.026875 0 0 1 19.84913,18.12618" />
    <path
       style="font-style:normal;font-weight:normal;font-size:medium;line-height:125%;font-family:Sans;letter-spacing:0px;word-spacing:0px;fill:#ffffff;fill-opacity:1;stroke:none;stroke-width:1px;stroke-linecap:butt;stroke-linejoin:miter;stroke-opacity:1"
       d="m 145,583.36133 0,3 10.09961,11.93555 L 145,609.35352 l 0,3.00781 11,0 c -0.15502,2.97351 -0.59651,3.09258 -1,4 1.29238,-0.14567 4,-1 4,-4 l 11,0 0,-3 -11,0 0,-10.94922 11,-12.04297 0,-3.00781 -25,0 z m 4,3 7,0 0,8.40234 -7,-8.40234 z m 10,0 7,0 -7,7.66406 0,-7.66406 z m -3,15.33594 0,7.66406 -7,0 7,-7.66406 z"
       id="path3373"
       inkscape:connector-curvature="0" />
    <g
       style="font-style:normal;font-weight:normal;font-size:40px;line-height:125%;font-family:Sans;letter-spacing:0px;word-spacing:0px;fill:#800000;fill-opacity:1;stroke:none;stroke-width:1px;stroke-linecap:butt;stroke-linejoin:miter;stroke-opacity:1"
       id="text3348"
       transform="translate(11.00781,1.1715347)" />
  </g>
  <g
     transform="translate(-138.47313,-578.78178)"
     id="g3425"
     inkscape:groupmode="layer"
     inkscape:label="Layer 1 copy">
    <path
       d="m 176.51307,597.0839 a 19.026875,19.026875 0 0 1 -18.24899,19.73628 19.026875,19.026875 0 0 1 -19.77399,-18.20813 19.026875,19.026875 0 0 1 18.1672,-19.8116 19.026875,19.026875 0 0 1 19.84913,18.12618"
       sodipodi:open="true"
       sodipodi:end="6.2368119"
       sodipodi:start="6.2450848"
       sodipodi:ry="19.026875"
       sodipodi:rx="19.026875"
       sodipodi:cy="597.80865"
       sodipodi:cx="157.5"
       sodipodi:type="arc"
       id="path3427"
       style="opacity:1;fill:#008080;fill-opacity:1;stroke:none;stroke-width:1;stroke-linecap:butt;stroke-miterlimit:4;stroke-dasharray:none;stroke-opacity:1" />
    <path
       inkscape:connector-curvature="0"
       id="path3429"
       d="m 142.85746,582.49682 0,3.08841 11.83072,12.28732 -11.83072,11.3825 0,3.09645 12.88544,0 c -0.1816,3.06115 -0.69876,3.18373 -1.17141,4.11789 1.5139,-0.14996 4.68561,-1.02947 4.68561,-4.11789 l 12.88544,0 0,-3.08841 -12.88544,0 0,-11.27191 12.88544,-12.39791 0,-3.09645 -29.28508,0 z m 4.68561,3.08841 8.19983,0 0,8.64997 -8.19983,-8.64997 z m 11.71403,0 8.19983,0 -8.19983,7.88993 0,-7.88993 z m -3.5142,15.78793 0,7.88993 -8.19983,0 8.19983,-7.88993 z"
       style="font-style:normal;font-weight:normal;font-size:medium;line-height:125%;font-family:Sans;letter-spacing:0px;word-spacing:0px;fill:#ffffff;fill-opacity:1;stroke:none;stroke-width:1px;stroke-linecap:butt;stroke-linejoin:miter;stroke-opacity:1" />
    <g
       transform="translate(11.00781,1.1715347)"
       id="g3431"
       style="font-style:normal;font-weight:normal;font-size:40px;line-height:125%;font-family:Sans;letter-spacing:0px;word-spacing:0px;fill:#800000;fill-opacity:1;stroke:none;stroke-width:1px;stroke-linecap:butt;stroke-linejoin:miter;stroke-opacity:1" />
  </g>
</svg>
